<?xml version="1.0" encoding="utf-8"?>
<!-- Generator: Adobe Illustrator 16.0.3, SVG Export Plug-In . SVG Version: 6.00 Build 0)  -->
<!DOCTYPE svg PUBLIC "-//W3C//DTD SVG 1.1//EN" "http://www.w3.org/Graphics/SVG/1.1/DTD/svg11.dtd">
<svg version="1.1" xmlns="http://www.w3.org/2000/svg" xmlns:xlink="http://www.w3.org/1999/xlink" x="0px" y="0px" width="155px"
	 height="155px" viewBox="0 0 155 155" enable-background="new 0 0 155 155" xml:space="preserve">
<g id="圖層_7">
</g>
<g id="底紋">
</g>
<g id="照片美圖">
</g>
<g id="暗角遮罩">
</g>
<g id="網頁文案">
	<g>
		<g>
			<path fill="#FFFFFF" d="M152.5,77.5c0,41.42-33.58,75-74.998,75c-41.42,0-75.002-33.58-75.002-75c0-41.417,33.582-75,75.002-75
				C118.92,2.5,152.5,36.083,152.5,77.5z"/>
			<path fill="#231815" d="M77.502,155C34.768,155,0,120.234,0,77.5S34.768,0,77.502,0C120.234,0,155,34.766,155,77.5
				S120.234,155,77.502,155z M77.502,5C37.524,5,5,37.523,5,77.5S37.524,150,77.502,150C117.478,150,150,117.477,150,77.5
				S117.478,5,77.502,5z"/>
		</g>
		<g>
			<path fill="#231815" d="M52.407,53.725c-1.82,1.89-4.865,4.795-9.381,8.331c-0.105,0.49-0.42,0.945-0.875,1.12l-2.591-5.426
				c0.841-0.245,2.205-0.665,3.851-1.225v-9.871h-3.01l-0.281-0.98h3.291v-9.241l6.09,0.525c-0.069,0.49-0.279,0.84-1.295,0.98
				v6.581l1.261-2.275c0,0,2.17,2.38,3.255,3.85c-0.105,0.385-0.455,0.56-0.945,0.56h-3.57v8.261c1.33-0.49,2.73-0.98,4.096-1.47
				L52.407,53.725z M69.278,52.569L73.374,56c-0.279,0.315-0.7,0.525-1.436,0.63c-0.56,6.896-1.505,9.976-3.5,11.306
				c-1.225,0.84-2.625,1.19-4.586,1.19c0-1.331-0.104-2.451-0.595-3.081c-0.42-0.595-1.085-1.05-2.136-1.4
				c-2.1,1.82-4.619,3.325-7.63,4.55l-0.28-0.42c4.656-3.115,7.561-7.736,8.996-12.952h-0.176
				c-2.484,4.585-6.93,8.156-12.565,10.571l-0.351-0.455c3.746-2.59,6.686-6.301,8.436-10.116h-0.244
				c-2.521,2.905-6.056,5.181-10.326,6.861l-0.28-0.385c3.466-2.556,6.021-6.336,7.456-10.151h-4.025l-0.28-0.98h16.627l1.819-2.31
				c-0.805,0.315-1.785,0.595-2.66,0.595h-0.875v-1.399h-6.58v0.665c0,0.42-2.1,1.47-4.096,1.47h-0.665V36.223l4.936,1.891h6.056
				l2.205-2.346l4.41,3.36c-0.209,0.245-0.629,0.56-1.295,0.7v8.156c0,0.071-0.14,0.21-0.42,0.385c0.84,0.63,2.801,2.1,4.096,3.22
				c-0.105,0.385-0.49,0.56-1.016,0.56H59.758c-0.455,0.945-1.015,1.855-1.646,2.695h8.751L69.278,52.569z M58.183,39.093v3.43h6.58
				v-3.43H58.183z M64.763,47.074v-3.57h-6.58v3.57H64.763z M67.038,55.825c-1.119,3.255-2.904,6.056-5.426,8.401
				c0.945,0.035,1.996,0.105,2.521,0.105c0.524,0,0.805-0.07,1.119-0.28c0.805-0.665,1.506-3.36,1.926-8.226H67.038z"/>
			<path fill="#231815" d="M113.31,63.176c1.469,0.56,1.924,1.085,1.924,1.925c0,2.17-1.994,2.94-9.73,2.94h-4.551
				c-4.516,0-6.16-0.735-6.16-4.41v-6.546c-1.961,1.68-5.006,4.025-9.592,7.001c-0.174,0.49-0.523,0.875-0.979,1.015L81.56,59.5
				c0.877-0.14,2.275-0.42,3.957-0.771V47.109h-3.502l-0.279-0.98h3.781v-9.521l6.09,0.525c-0.07,0.49-0.314,0.875-1.295,1.015
				v7.981h0.35l1.785-3.22c0,0,1.295,1.4,2.346,2.695v-4.516l5.916,0.595c-0.035,0.455-0.385,0.84-1.227,0.945v5.321l2.102-0.945
				V35.908l5.881,0.56c-0.07,0.49-0.316,0.84-1.295,0.98v7.561l2.695-1.19l2.064-2.135l3.85,4.025
				c-0.279,0.315-0.629,0.455-1.434,0.525c-0.98,3.815-2.836,9.451-5.182,13.091l-0.35-0.21c0.561-4.445,0.875-10.186,0.875-14.142
				l-2.52,1.12v13.792c0,0.42-1.996,1.365-3.746,1.365h-0.84V48.089l-2.102,0.91v13.407c0,0.98,0.49,1.26,2.066,1.26h4.41
				c1.436,0,2.695-0.035,3.395-0.07c0.596-0.035,1.016-0.175,1.365-0.56c0.525-0.7,1.227-2.38,2.102-4.76h0.35L113.31,63.176z
				 M90.312,57.645c1.436-0.35,2.975-0.7,4.48-1.085v-5.496l-2.906,1.26l-0.664-0.77l3.57-1.575v-2.871h-0.176h-4.305V57.645z"/>
			<path fill="#231815" d="M49.536,100.47c8.437,2.871,4.131,9.276,0.806,6.126c0-1.436-0.351-2.976-0.806-4.341v15.577
				c-0.035,0.28-1.574,1.365-3.99,1.365h-0.91v-11.831c-1.4,1.68-3.01,3.22-4.795,4.585l-0.385-0.35
				c2.38-3.605,3.99-8.786,4.865-13.477h-4.306l-0.28-0.98h4.9v-5.391c-1.645,0.175-3.325,0.28-4.936,0.315l-0.07-0.315
				c3.396-1.505,7.631-4.13,9.732-5.881l5.355,4.831c-0.49,0.385-1.365,0.455-2.626,0.035c-0.735,0.175-1.61,0.315-2.556,0.455
				v5.601l1.855-2.73c0,0,2.381,2.101,3.711,3.5c-0.07,0.385-0.455,0.56-0.945,0.56h-4.621V100.47z M71.099,114.437
				c0,0,1.785,2.03,2.695,3.29c-0.105,0.385-0.42,0.56-0.91,0.56H51.217l-0.28-0.98h4.201V87.519l4.9,1.855h4.9l1.96-2.59
				l4.796,3.326c-0.246,0.385-0.701,0.595-1.611,0.735v25.448L71.099,114.437z M59.758,90.354v7.771h5.495v-7.771H59.758z
				 M65.253,99.104h-5.495v8.191h5.495V99.104z M59.758,117.307h5.495v-9.031h-5.495V117.307z"/>
			<path fill="#231815" d="M91.817,96.444c-0.105,0.315-0.387,0.56-1.086,0.7v20.547c-0.07,0.35-2.135,1.4-4.131,1.4h-0.945v-17.957
				c-1.225,1.225-2.52,2.345-3.92,3.326l-0.385-0.245c2.766-4.48,5.531-11.516,6.756-18.342l6.721,1.996
				c-0.176,0.455-0.631,0.77-1.436,0.735c-1.016,2.66-2.17,5.005-3.5,7.141L91.817,96.444z M111.489,95.395
				c0,0,2.414,2.24,3.779,3.675c-0.105,0.385-0.455,0.56-0.945,0.56H92.026l-0.279-0.98h4.795v-5.635h-3.359l-0.281-0.98h3.641
				v-5.916l5.986,0.49c-0.07,0.455-0.281,0.77-1.121,0.91v4.516h3.045v-5.916l6.057,0.49c-0.07,0.455-0.279,0.77-1.156,0.91v4.025
				l1.752-2.695c0,0,2.414,2.17,3.709,3.605c-0.07,0.385-0.455,0.56-0.945,0.56h-4.516v5.635L111.489,95.395z M108.897,100.505
				l4.551,3.465c-0.209,0.28-0.629,0.63-1.365,0.77v12.636c-0.068,0.28-2.555,1.19-4.234,1.19h-0.84v-2.03h-7.176v0.84
				c0,0.49-2.17,1.61-4.271,1.61h-0.734v-18.062l5.215,2.03h6.615L108.897,100.505z M99.833,103.935v5.041h7.176v-5.041H99.833z
				 M107.009,115.557v-5.601h-7.176v5.601H107.009z M101.407,98.649h3.045v-5.635h-3.045V98.649z"/>
		</g>
	</g>
</g>
<g id="其他狀態列">
</g>
<g id="置頂_x5F_狀態列與選單">
</g>
</svg>
